{
	"name": "Webtra.About",

	"version": "2.0",

	"versionName": "Beholder",

	"versionDate": "12.08.2024",

	"shortDescription": "",
	
	"longDescription": true,

	"changeLog": true,

	"license": "ONFSLv1",

	"developer":
	{
		"name": "Webtranet Affinity Group",
		"url": "https://webtranet.online"
	},

	"mediaUrls": [],

	"categories": [],

	"requirements":
	{

	},

	"icons":
	{
		"256": "public/logo_256.png"
	},

	"visible": true,

	"permissions": [],

	"manifestVersion": 1,

	"startType": "windowed",

	"startHeight": 438,

	"startWidth": 300,

	"resizable": false,

	"fullscreenable": false,

	"appcachePath": "",

	"dependencies":
	{
		"css":
		[
			"/wappstower/libs/tripletower/1.0/css/tripletower.css"
		],

		"js":
		[
			"/wappstower/cdnjs/jquery/3.4.1/jquery.js",
			"/wappstower/libs/tripletower/1.0/js/tripletower.js"
		]
	},

	"views":
	{
		"default_view": "about",

		"about":
		{
			"title": "#WEBTRA.ABOUT.VIEWTITLE",
			"loadingScreen": false,
			"header": false,
			"navigation": false,
			"subNavigation": false,
			"content": "about",
			"sidebar": false,
			"footer": false,
			"accessType": "public"
		}
	},

	"api":
	{

	}
}